<?xml version="1.0" encoding="UTF-8" standalone="no"?>
<svg
   xmlns:dc="http://purl.org/dc/elements/1.1/"
   xmlns:cc="http://creativecommons.org/ns#"
   xmlns:rdf="http://www.w3.org/1999/02/22-rdf-syntax-ns#"
   xmlns:svg="http://www.w3.org/2000/svg"
   xmlns="http://www.w3.org/2000/svg"
   xmlns:sodipodi="http://sodipodi.sourceforge.net/DTD/sodipodi-0.dtd"
   xmlns:inkscape="http://www.inkscape.org/namespaces/inkscape"
   version="1.1"
   x="0px"
   y="0px"
   viewBox="0 0 100 100"
   xml:space="preserve"
   id="svg2"
   inkscape:version="0.48.5 r10040"
   width="100%"
   height="100%"
   sodipodi:docname="noun_355599_cc.svg"><metadata
     id="metadata16"><rdf:RDF><cc:Work
         rdf:about=""><dc:format>image/svg+xml</dc:format><dc:type
           rdf:resource="http://purl.org/dc/dcmitype/StillImage" /><dc:title></dc:title></cc:Work></rdf:RDF></metadata><defs
     id="defs14" /><sodipodi:namedview
     pagecolor="#ffffff"
     bordercolor="#666666"
     borderopacity="1"
     objecttolerance="10"
     gridtolerance="10"
     guidetolerance="10"
     inkscape:pageopacity="0"
     inkscape:pageshadow="2"
     inkscape:window-width="1400"
     inkscape:window-height="948"
     id="namedview12"
     showgrid="false"
     inkscape:zoom="1.888"
     inkscape:cx="50"
     inkscape:cy="62.5"
     inkscape:window-x="0"
     inkscape:window-y="0"
     inkscape:window-maximized="0"
     inkscape:current-layer="svg2" /><g
     id="g4"
     transform="translate(0,-0.1)"><path
       d="m 90.6,40 h -4.4 c -0.8,-3 -2,-5.9 -3.5,-8.6 l 3.1,-3.1 c 1.7,-1.7 1.7,-4.5 0,-6.2 l -8,-8 c -1.7,-1.7 -4.5,-1.7 -6.2,0 l -3.1,3.1 C 65.8,15.7 63,14.5 59.9,13.7 V 9.4 C 60,7 58,5 55.6,5 H 44.4 C 41.9,5 40,7 40,9.4 v 4.4 c -3,0.8 -5.9,2 -8.6,3.5 l -3.1,-3.1 c -1.7,-1.7 -4.5,-1.7 -6.2,0 l -8,8 c -1.7,1.7 -1.7,4.5 0,6.2 l 3.1,3.1 c -1.5,2.7 -2.7,5.5 -3.5,8.6 H 9.4 C 6.9,40 5,42 5,44.4 V 55.7 C 5,58 6.9,60 9.4,60 h 4.4 c 0.8,3 2,5.9 3.5,8.6 l -3.1,3.1 c -1.7,1.7 -1.7,4.5 0,6.2 l 8,8 c 1.7,1.7 4.5,1.7 6.2,0 l 3.1,-3.1 c 2.7,1.5 5.5,2.7 8.6,3.5 v 4.4 c 0,2.4 2,4.4 4.4,4.4 h 11.3 c 2.4,0 4.4,-2 4.4,-4.4 v -4.4 c 3,-0.8 5.9,-2 8.6,-3.5 l 3.1,3.1 c 1.7,1.7 4.5,1.7 6.2,0 l 8,-8 c 1.7,-1.7 1.7,-4.5 0,-6.2 L 83,68.6 c 1.5,-2.7 2.7,-5.5 3.5,-8.6 h 4.4 c 2.4,0 4.4,-2 4.4,-4.4 V 44.4 C 95,42 93,40 90.6,40 z M 50,70 C 39,70 30,61 30,50 30,39 39,30 50,30 c 11,0 20,9 20,20 0,11 -9,20 -20,20 z"
       id="path6"
       inkscape:connector-curvature="0" /></g></svg>